http://u.starbr.in/n8eupa
http://tinyurl.com/yagggl22
EPG: http://bit.ly/2f1AnON
http://bit.ly/ONSeries
https://raw.githubusercontent.com/pmachad0/OnSerieS/playlistv/onseries.m3u8

java-1.7.0-openjdk.x86_64 (/usr/lib/jvm/java-1.7.0-openjdk-1.7.0.181-2.6.14.8.el7_5.x86_64/jre/bin/java)
java-1.8.0-openjdk.x86_64 (/usr/lib/jvm/java-1.8.0-openjdk-1.8.0.171-8.b10.el7_5.x86_64/jre/bin/java)
